plots/mediciones/2022_12_27_INTI/srd/csv/221227_120126.csv

"Record Length",20000,"Points",-1.92000000e-007,2.02499693e-003
"Sample Interval",2.00000000e-011,s,-1.91980000e-007,3.59999686e-003
"Trigger Point",9600,"Samples",-1.91960000e-007,4.24687184e-003
"Trigger Time",1.34131007e-011,s,-1.91940000e-007,3.59999686e-003
"",,,-1.91920000e-007,1.67343445e-003
"Horizontal Offset",-1.92000000e-007,s,-1.91900000e-007,-2.98023223e-009
,,,-1.91880000e-007,-4.07815463e-004
,,,-1.91860000e-007,-2.98023223e-009
,,,-1.91840000e-007,9.84345155e-005
,,,-1.91820000e-007,-2.98023223e-009
,,,-1.91800000e-007,1.40595192e-005
,,,-1.91780000e-007,-2.98023223e-009
,,,-1.91760000e-007,-1.54690474e-004
,,,-1.91740000e-007,-2.98023223e-009
,,,-1.91720000e-007,4.35934501e-004
,,,-1.91700000e-007,-2.98023223e-009
,,,-1.91680000e-007,-1.78594040e-003
,,,-1.91660000e-007,-3.60000283e-003
,,,-1.91640000e-007,-4.02187781e-003
,,,-1.91620000e-007,-3.60000283e-003
,,,-1.91600000e-007,-3.31875284e-003
,,,-1.91580000e-007,-3.60000283e-003
,,,-1.91560000e-007,-3.74062782e-003
,,,-1.91540000e-007,-3.60000283e-003
,,,-1.91520000e-007,-3.24844034e-003
,,,-1.91500000e-007,-3.60000283e-003
,,,-1.91480000e-007,-4.09219030e-003
,,,-1.91460000e-007,-3.60000283e-003
,,,-1.91440000e-007,-1.51875291e-003
,,,-1.91420000e-007,-2.98023223e-009
,,,-1.91400000e-007,-7.03154772e-005
,,,-1.91380000e-007,-2.98023223e-009
,,,-1.91360000e-007,1.79999694e-003
,,,-1.91340000e-007,3.59999686e-003
,,,-1.91320000e-007,3.68437186e-003
,,,-1.91300000e-007,3.59999686e-003
,,,-1.91280000e-007,5.06249680e-003
,,,-1.91260000e-007,7.19999671e-003
,,,-1.91240000e-007,7.73437169e-003
,,,-1.91220000e-007,7.19999671e-003
,,,-1.91200000e-007,6.72187173e-003
,,,-1.91180000e-007,7.19999671e-003
,,,-1.91160000e-007,7.57968419e-003
,,,-1.91140000e-007,7.19999671e-003
,,,-1.91120000e-007,5.62499678e-003
,,,-1.91100000e-007,3.59999686e-003
,,,-1.91080000e-007,1.72968445e-003
,,,-1.91060000e-007,-2.98023223e-009
,,,-1.91040000e-007,-1.78594040e-003
,,,-1.91020000e-007,-3.60000283e-003
,,,-1.91000000e-007,-4.31719029e-003
,,,-1.90980000e-007,-3.60000283e-003
,,,-1.90960000e-007,-1.71562791e-003
,,,-1.90940000e-007,-2.98023223e-009
,,,-1.90920000e-007,5.76559495e-004
,,,-1.90900000e-007,-2.98023223e-009
,,,-1.90880000e-007,-5.76565455e-004
,,,-1.90860000e-007,-2.98023223e-009
,,,-1.90840000e-007,1.06874697e-003
,,,-1.90820000e-007,-2.98023223e-009
,,,-1.90800000e-007,-3.74062782e-003
,,,-1.90780000e-007,-7.20000267e-003
,,,-1.90760000e-007,-7.63594015e-003
,,,-1.90740000e-007,-7.20000267e-003
,,,-1.90720000e-007,-7.53750266e-003
,,,-1.90700000e-007,-7.20000267e-003
,,,-1.90680000e-007,-3.93750281e-003
,,,-1.90660000e-007,-2.98023223e-009
,,,-1.90640000e-007,2.15155943e-003
,,,-1.90620000e-007,3.59999686e-003
,,,-1.90600000e-007,5.69530927e-003
,,,-1.90580000e-007,7.19999671e-003
,,,-1.90560000e-007,6.04687176e-003
,,,-1.90540000e-007,3.59999686e-003
,,,-1.90520000e-007,1.46249696e-003
,,,-1.90500000e-007,-2.98023223e-009
,,,-1.90480000e-007,-1.71562791e-003
,,,-1.90460000e-007,-3.60000283e-003
,,,-1.90440000e-007,-4.51406529e-003
,,,-1.90420000e-007,-3.60000283e-003
,,,-1.90400000e-007,-1.29375292e-003
,,,-1.90380000e-007,-2.98023223e-009
,,,-1.90360000e-007,-2.81252968e-004
,,,-1.90340000e-007,-2.98023223e-009
,,,-1.90320000e-007,2.22187192e-003
,,,-1.90300000e-007,3.59999686e-003
,,,-1.90280000e-007,2.02499693e-003
,,,-1.90260000e-007,-2.98023223e-009
,,,-1.90240000e-007,-5.62529778e-005
,,,-1.90220000e-007,-2.98023223e-009
,,,-1.90200000e-007,-1.92656540e-003
,,,-1.90180000e-007,-3.60000283e-003
,,,-1.90160000e-007,-2.41875288e-003
,,,-1.90140000e-007,-2.98023223e-009
,,,-1.90120000e-007,7.31246988e-004
,,,-1.90100000e-007,-2.98023223e-009
,,,-1.90080000e-007,-4.21877962e-004
,,,-1.90060000e-007,-2.98023223e-009
,,,-1.90040000e-007,4.21872002e-004
,,,-1.90020000e-007,-2.98023223e-009
,,,-1.90000000e-007,-1.43437792e-003
,,,-1.89980000e-007,-3.60000283e-003
,,,-1.89960000e-007,-5.68125274e-003
,,,-1.89940000e-007,-7.20000267e-003
,,,-1.89920000e-007,-7.55156516e-003
,,,-1.89900000e-007,-7.20000267e-003
,,,-1.89880000e-007,-5.82187773e-003
,,,-1.89860000e-007,-3.60000283e-003
,,,-1.89840000e-007,-1.08281543e-003
,,,-1.89820000e-007,-2.98023223e-009
,,,-1.89800000e-007,-3.65627964e-004
,,,-1.89780000e-007,-2.98023223e-009
,,,-1.89760000e-007,2.15155943e-003
,,,-1.89740000e-007,3.59999686e-003
,,,-1.89720000e-007,2.17968443e-003
,,,-1.89700000e-007,-2.98023223e-009
,,,-1.89680000e-007,-5.48440457e-004
,,,-1.89660000e-007,-2.98023223e-009
,,,-1.89640000e-007,-5.62529778e-005
,,,-1.89620000e-007,-2.98023223e-009
,,,-1.89600000e-007,1.39218446e-003
,,,-1.89580000e-007,3.59999686e-003
,,,-1.89560000e-007,4.59843432e-003
,,,-1.89540000e-007,3.59999686e-003
,,,-1.89520000e-007,1.37812196e-003
,,,-1.89500000e-007,-2.98023223e-009
,,,-1.89480000e-007,8.43720161e-005
,,,-1.89460000e-007,-2.98023223e-009
,,,-1.89440000e-007,-1.57500291e-003
,,,-1.89420000e-007,-3.60000283e-003
,,,-1.89400000e-007,-4.12031530e-003
,,,-1.89380000e-007,-3.60000283e-003
,,,-1.89360000e-007,-3.05156535e-003
,,,-1.89340000e-007,-3.60000283e-003
,,,-1.89320000e-007,-3.97969031e-003
,,,-1.89300000e-007,-3.60000283e-003
,,,-1.89280000e-007,-1.80000290e-003
,,,-1.89260000e-007,-2.98023223e-009
,,,-1.89240000e-007,1.53280945e-003
,,,-1.89220000e-007,3.59999686e-003
,,,-1.89200000e-007,6.89062172e-003
,,,-1.89180000e-007,1.07999966e-002
,,,-1.89160000e-007,1.31484340e-002
,,,-1.89140000e-007,1.43999964e-002
,,,-1.89120000e-007,1.43718714e-002
,,,-1.89100000e-007,1.43999964e-002
,,,-1.89080000e-007,1.31906215e-002
,,,-1.89060000e-007,1.07999966e-002
,,,-1.89040000e-007,6.06093426e-003
,,,-1.89020000e-007,-2.98023223e-009
,,,-1.89000000e-007,-6.11719022e-003
,,,-1.88980000e-007,-1.08000025e-002
,,,-1.88960000e-007,-1.30500024e-002
,,,-1.88940000e-007,-1.44000024e-002
,,,-1.88920000e-007,-1.47093773e-002
,,,-1.88900000e-007,-1.44000024e-002
,,,-1.88880000e-007,-1.24734399e-002
,,,-1.88860000e-007,-1.08000025e-002
,,,-1.88840000e-007,-9.23906508e-003
,,,-1.88820000e-007,-7.20000267e-003
,,,-1.88800000e-007,-3.60000283e-003
,,,-1.88780000e-007,-2.98023223e-009
,,,-1.88760000e-007,1.23749697e-003
,,,-1.88740000e-007,-2.98023223e-009
,,,-1.88720000e-007,-2.36250288e-003
,,,-1.88700000e-007,-3.60000283e-003
,,,-1.88680000e-007,-3.57187783e-003
,,,-1.88660000e-007,-3.60000283e-003
,,,-1.88640000e-007,-5.02031526e-003
,,,-1.88620000e-007,-7.20000267e-003
,,,-1.88600000e-007,-8.19844013e-003
,,,-1.88580000e-007,-7.20000267e-003
,,,-1.88560000e-007,-4.89375277e-003
,,,-1.88540000e-007,-3.60000283e-003
,,,-1.88520000e-007,-3.67031532e-003
,,,-1.88500000e-007,-3.60000283e-003
,,,-1.88480000e-007,-1.95469040e-003
,,,-1.88460000e-007,-2.98023223e-009
,,,-1.88440000e-007,5.06246998e-004
,,,-1.88420000e-007,-2.98023223e-009
,,,-1.88400000e-007,-2.67190469e-004
,,,-1.88380000e-007,-2.98023223e-009
,,,-1.88360000e-007,8.43720161e-005
,,,-1.88340000e-007,-2.98023223e-009
,,,-1.88320000e-007,-5.62529778e-005
,,,-1.88300000e-007,-2.98023223e-009
,,,-1.88280000e-007,1.40595192e-005
,,,-1.88260000e-007,-2.98023223e-009
,,,-1.88240000e-007,1.40595192e-005
,,,-1.88220000e-007,-2.98023223e-009
,,,-1.88200000e-007,1.40595192e-005
,,,-1.88180000e-007,-2.98023223e-009
,,,-1.88160000e-007,1.40595192e-005
,,,-1.88140000e-007,-2.98023223e-009
,,,-1.88120000e-007,7.03095167e-005
,,,-1.88100000e-007,-2.98023223e-009
,,,-1.88080000e-007,-7.03154772e-005
,,,-1.88060000e-007,-2.98023223e-009
,,,-1.88040000e-007,2.24997010e-004
,,,-1.88020000e-007,-2.98023223e-009
,,,-1.88000000e-007,-4.21877962e-004
,,,-1.87980000e-007,-2.98023223e-009
,,,-1.87960000e-007,1.79999694e-003
,,,-1.87940000e-007,3.59999686e-003
,,,-1.87920000e-007,4.03593435e-003
,,,-1.87900000e-007,3.59999686e-003
,,,-1.87880000e-007,3.33280938e-003
,,,-1.87860000e-007,3.59999686e-003
,,,-1.87840000e-007,3.75468436e-003
,,,-1.87820000e-007,3.59999686e-003
,,,-1.87800000e-007,3.26249688e-003
,,,-1.87780000e-007,3.59999686e-003
,,,-1.87760000e-007,4.10624684e-003
,,,-1.87740000e-007,3.59999686e-003
,,,-1.87720000e-007,1.64530945e-003
,,,-1.87700000e-007,-2.98023223e-009
,,,-1.87680000e-007,-7.03154772e-005
,,,-1.87660000e-007,-2.98023223e-009
,,,-1.87640000e-007,-1.29375292e-003
,,,-1.87620000e-007,-3.60000283e-003
,,,-1.87600000e-007,-4.66875278e-003
,,,-1.87580000e-007,-3.60000283e-003
,,,-1.87560000e-007,-1.22344043e-003
,,,-1.87540000e-007,-2.98023223e-009
,,,-1.87520000e-007,-3.51565465e-004
,,,-1.87500000e-007,-2.98023223e-009
,,,-1.87480000e-007,2.15155943e-003
,,,-1.87460000e-007,3.59999686e-003
,,,-1.87440000e-007,2.09530943e-003
,,,-1.87420000e-007,-2.98023223e-009
,,,-1.87400000e-007,-2.67190469e-004
,,,-1.87380000e-007,-2.98023223e-009
,,,-1.87360000e-007,-1.50469042e-003
,,,-1.87340000e-007,-3.60000283e-003
,,,-1.87320000e-007,-4.16250280e-003
,,,-1.87300000e-007,-3.60000283e-003
,,,-1.87280000e-007,-3.31875284e-003
,,,-1.87260000e-007,-3.60000283e-003
,,,-1.87240000e-007,-3.67031532e-003
,,,-1.87220000e-007,-3.60000283e-003
,,,-1.87200000e-007,-3.52969033e-003
,,,-1.87180000e-007,-3.60000283e-003
,,,-1.87160000e-007,-3.58594033e-003
,,,-1.87140000e-007,-3.60000283e-003
,,,-1.87120000e-007,-3.58594033e-003
,,,-1.87100000e-007,-3.60000283e-003
,,,-1.87080000e-007,-3.58594033e-003
,,,-1.87060000e-007,-3.60000283e-003
,,,-1.87040000e-007,-3.52969033e-003
,,,-1.87020000e-007,-3.60000283e-003
,,,-1.87000000e-007,-3.61406532e-003
,,,-1.86980000e-007,-3.60000283e-003
,,,-1.86960000e-007,-3.38906533e-003
,,,-1.86940000e-007,-3.60000283e-003
,,,-1.86920000e-007,-3.88125281e-003
,,,-1.86900000e-007,-3.60000283e-003
,,,-1.86880000e-007,-2.12344039e-003
,,,-1.86860000e-007,-2.98023223e-009
,,,-1.86840000e-007,1.77187194e-003
,,,-1.86820000e-007,3.59999686e-003
,,,-1.86800000e-007,5.35780929e-003
,,,-1.86780000e-007,7.19999671e-003
,,,-1.86760000e-007,7.84687168e-003
,,,-1.86740000e-007,7.19999671e-003
,,,-1.86720000e-007,4.52812182e-003
,,,-1.86700000e-007,-2.98023223e-009
,,,-1.86680000e-007,-5.55469024e-003
,,,-1.86660000e-007,-1.08000025e-002
,,,-1.86640000e-007,-1.36125024e-002
,,,-1.86620000e-007,-1.44000024e-002
,,,-1.86600000e-007,-1.29515649e-002
,,,-1.86580000e-007,-1.08000025e-002
,,,-1.86560000e-007,-7.49531516e-003
,,,-1.86540000e-007,-3.60000283e-003
,,,-1.86520000e-007,1.43437196e-003
,,,-1.86500000e-007,7.19999671e-003
,,,-1.86480000e-007,1.21078090e-002
,,,-1.86460000e-007,1.43999964e-002
,,,-1.86440000e-007,1.29796840e-002
,,,-1.86420000e-007,1.07999966e-002
,,,-1.86400000e-007,8.95780913e-003
,,,-1.86380000e-007,7.19999671e-003
,,,-1.86360000e-007,3.71249686e-003
,,,-1.86340000e-007,-2.98023223e-009
,,,-1.86320000e-007,-2.41875288e-003
,,,-1.86300000e-007,-3.60000283e-003
,,,-1.86280000e-007,-4.09219030e-003
,,,-1.86260000e-007,-3.60000283e-003
,,,-1.86240000e-007,-1.53281541e-003
,,,-1.86220000e-007,-2.98023223e-009
,,,-1.86200000e-007,1.82809512e-004
,,,-1.86180000e-007,-2.98023223e-009
,,,-1.86160000e-007,4.92184499e-004
,,,-1.86140000e-007,-2.98023223e-009
,,,-1.86120000e-007,-2.08125289e-003
,,,-1.86100000e-007,-3.60000283e-003
,,,-1.86080000e-007,-2.36250288e-003
,,,-1.86060000e-007,-2.98023223e-009
,,,-1.86040000e-007,8.71871982e-004
,,,-1.86020000e-007,-2.98023223e-009
,,,-1.86000000e-007,-7.17190449e-004
,,,-1.85980000e-007,-2.98023223e-009
,,,-1.85960000e-007,2.01093443e-003
,,,-1.85940000e-007,3.59999686e-003
,,,-1.85920000e-007,3.89530935e-003
,,,-1.85900000e-007,3.59999686e-003
,,,-1.85880000e-007,3.54374687e-003
,,,-1.85860000e-007,3.59999686e-003
,,,-1.85840000e-007,3.33280938e-003
,,,-1.85820000e-007,3.59999686e-003
,,,-1.85800000e-007,5.13280930e-003
,,,-1.85780000e-007,7.19999671e-003
,,,-1.85760000e-007,8.07187167e-003
,,,-1.85740000e-007,7.19999671e-003
,,,-1.85720000e-007,5.18905930e-003
,,,-1.85700000e-007,3.59999686e-003
,,,-1.85680000e-007,3.31874688e-003
,,,-1.85660000e-007,3.59999686e-003
,,,-1.85640000e-007,3.62812186e-003
,,,-1.85620000e-007,3.59999686e-003
,,,-1.85600000e-007,3.76874686e-003
,,,-1.85580000e-007,3.59999686e-003
,,,-1.85560000e-007,3.09374689e-003
,,,-1.85540000e-007,3.59999686e-003
,,,-1.85520000e-007,5.62499678e-003
,,,-1.85500000e-007,7.19999671e-003
,,,-1.85480000e-007,6.27187175e-003
,,,-1.85460000e-007,3.59999686e-003
,,,-1.85440000e-007,1.09687197e-003
,,,-1.85420000e-007,-2.98023223e-009
,,,-1.85400000e-007,-2.39065470e-004
,,,-1.85380000e-007,-2.98023223e-009
,,,-1.85360000e-007,-1.40627974e-004
,,,-1.85340000e-007,-2.98023223e-009
,,,-1.85320000e-007,-4.21904784e-005
,,,-1.85300000e-007,-2.98023223e-009
,,,-1.85280000e-007,-1.04062794e-003
,,,-1.85260000e-007,-3.60000283e-003
,,,-1.85240000e-007,-7.91719014e-003
,,,-1.85220000e-007,-1.44000024e-002
,,,-1.85200000e-007,-2.14031271e-002
,,,-1.85180000e-007,-2.88000017e-002
,,,-1.85160000e-007,-3.33843765e-002
,,,-1.85140000e-007,-3.60000014e-002
,,,-1.85120000e-007,-3.38625015e-002
,,,-1.85100000e-007,-2.88000017e-002
,,,-1.85080000e-007,-1.92796897e-002
,,,-1.85060000e-007,-7.20000267e-003
,,,-1.85040000e-007,6.20155925e-003
,,,-1.85020000e-007,1.79999962e-002
,,,-1.85000000e-007,2.60156209e-002
,,,-1.84980000e-007,3.23999956e-002
,,,-1.84960000e-007,3.57609330e-002
,,,-1.84940000e-007,3.59999955e-002
,,,-1.84920000e-007,2.97421832e-002
,,,-1.84900000e-007,2.15999961e-002
,,,-1.84880000e-007,1.33453089e-002
,,,-1.84860000e-007,7.19999671e-003
,,,-1.84840000e-007,1.49062196e-003
,,,-1.84820000e-007,-3.60000283e-003
,,,-1.84800000e-007,-6.69375269e-003
,,,-1.84780000e-007,-7.20000267e-003
,,,-1.84760000e-007,-5.02031526e-003
,,,-1.84740000e-007,-3.60000283e-003
,,,-1.84720000e-007,-3.30469034e-003
,,,-1.84700000e-007,-3.60000283e-003
,,,-1.84680000e-007,-1.98281539e-003
,,,-1.84660000e-007,-2.98023223e-009
,,,-1.84640000e-007,7.87496986e-004
,,,-1.84620000e-007,-2.98023223e-009
,,,-1.84600000e-007,-7.59377948e-004
,,,-1.84580000e-007,-2.98023223e-009
,,,-1.84560000e-007,1.95468444e-003
,,,-1.84540000e-007,3.59999686e-003
,,,-1.84520000e-007,3.69843436e-003
,,,-1.84500000e-007,3.59999686e-003
,,,-1.84480000e-007,3.95155935e-003
,,,-1.84460000e-007,3.59999686e-003
,,,-1.84440000e-007,1.58905945e-003
,,,-1.84420000e-007,-2.98023223e-009
,,,-1.84400000e-007,1.68747013e-004
,,,-1.84380000e-007,-2.98023223e-009
,,,-1.84360000e-007,-2.01094039e-003
,,,-1.84340000e-007,-3.60000283e-003
,,,-1.84320000e-007,-2.36250288e-003
,,,-1.84300000e-007,-2.98023223e-009
,,,-1.84280000e-007,7.87496986e-004
,,,-1.84260000e-007,-2.98023223e-009
,,,-1.84240000e-007,-4.35940461e-004
,,,-1.84220000e-007,-2.98023223e-009
,,,-1.84200000e-007,5.62496996e-004
,,,-1.84180000e-007,-2.98023223e-009
,,,-1.84160000e-007,-1.71562791e-003
,,,-1.84140000e-007,-3.60000283e-003
,,,-1.84120000e-007,-4.23281530e-003
,,,-1.84100000e-007,-3.60000283e-003
,,,-1.84080000e-007,-2.01094039e-003
,,,-1.84060000e-007,-2.98023223e-009
,,,-1.84040000e-007,2.16562193e-003
,,,-1.84020000e-007,3.59999686e-003
,,,-1.84000000e-007,3.82499686e-003
,,,-1.83980000e-007,3.59999686e-003
,,,-1.83960000e-007,3.54374687e-003
,,,-1.83940000e-007,3.59999686e-003
,,,-1.83920000e-007,3.34687188e-003
,,,-1.83900000e-007,3.59999686e-003
,,,-1.83880000e-007,4.04999685e-003
,,,-1.83860000e-007,3.59999686e-003
,,,-1.83840000e-007,1.58905945e-003
,,,-1.83820000e-007,-2.98023223e-009
,,,-1.83800000e-007,1.40595192e-005
,,,-1.83780000e-007,-2.98023223e-009
,,,-1.83760000e-007,-1.51875291e-003
,,,-1.83740000e-007,-3.60000283e-003
,,,-1.83720000e-007,-4.17656530e-003
,,,-1.83700000e-007,-3.60000283e-003
,,,-1.83680000e-007,-3.09375285e-003
,,,-1.83660000e-007,-3.60000283e-003
,,,-1.83640000e-007,-4.09219030e-003
,,,-1.83620000e-007,-3.60000283e-003
,,,-1.83600000e-007,-1.72969041e-003
,,,-1.83580000e-007,-2.98023223e-009
,,,-1.83560000e-007,4.35934501e-004
,,,-1.83540000e-007,-2.98023223e-009
,,,-1.83520000e-007,-2.10940471e-004
,,,-1.83500000e-007,-2.98023223e-009
,,,-1.83480000e-007,8.43720161e-005
,,,-1.83460000e-007,-2.98023223e-009
,,,-1.83440000e-007,-5.62529778e-005
,,,-1.83420000e-007,-2.98023223e-009
,,,-1.83400000e-007,-5.62529778e-005
,,,-1.83380000e-007,-2.98023223e-009
,,,-1.83360000e-007,8.43720161e-005
,,,-1.83340000e-007,-2.98023223e-009
,,,-1.83320000e-007,-2.10940471e-004
,,,-1.83300000e-007,-2.98023223e-009
,,,-1.83280000e-007,4.35934501e-004
,,,-1.83260000e-007,-2.98023223e-009
,,,-1.83240000e-007,-1.78594040e-003
,,,-1.83220000e-007,-3.60000283e-003
,,,-1.83200000e-007,-3.96562781e-003
,,,-1.83180000e-007,-3.60000283e-003
,,,-1.83160000e-007,-3.38906533e-003
,,,-1.83140000e-007,-3.60000283e-003
,,,-1.83120000e-007,-3.52969033e-003
,,,-1.83100000e-007,-3.60000283e-003
,,,-1.83080000e-007,-3.74062782e-003
,,,-1.83060000e-007,-3.60000283e-003
,,,-1.83040000e-007,-2.27812788e-003
,,,-1.83020000e-007,-2.98023223e-009
,,,-1.83000000e-007,2.30624692e-003
,,,-1.82980000e-007,3.59999686e-003
,,,-1.82960000e-007,3.54374687e-003
,,,-1.82940000e-007,3.59999686e-003
,,,-1.82920000e-007,3.97968435e-003
,,,-1.82900000e-007,3.59999686e-003
,,,-1.82880000e-007,1.60312195e-003
,,,-1.82860000e-007,-2.98023223e-009
,,,-1.82840000e-007,-5.62529778e-005
,,,-1.82820000e-007,-2.98023223e-009
,,,-1.82800000e-007,-1.57500291e-003
,,,-1.82780000e-007,-3.60000283e-003
,,,-1.82760000e-007,-4.09219030e-003
,,,-1.82740000e-007,-3.60000283e-003
,,,-1.82720000e-007,-3.31875284e-003
,,,-1.82700000e-007,-3.60000283e-003
,,,-1.82680000e-007,-3.61406532e-003
,,,-1.82660000e-007,-3.60000283e-003
,,,-1.82640000e-007,-3.61406532e-003
,,,-1.82620000e-007,-3.60000283e-003
,,,-1.82600000e-007,-3.37500283e-003
,,,-1.82580000e-007,-3.60000283e-003
,,,-1.82560000e-007,-4.02187781e-003
,,,-1.82540000e-007,-3.60000283e-003
,,,-1.82520000e-007,-1.78594040e-003
,,,-1.82500000e-007,-2.98023223e-009
,,,-1.82480000e-007,4.35934501e-004
,,,-1.82460000e-007,-2.98023223e-009
,,,-1.82440000e-007,-2.10940471e-004
,,,-1.82420000e-007,-2.98023223e-009
,,,-1.82400000e-007,1.40622014e-004
,,,-1.82380000e-007,-2.98023223e-009
,,,-1.82360000e-007,-1.26565475e-004
,,,-1.82340000e-007,-2.98023223e-009
,,,-1.82320000e-007,2.24997010e-004
,,,-1.82300000e-007,-2.98023223e-009
,,,-1.82280000e-007,-4.21877962e-004
,,,-1.82260000e-007,-2.98023223e-009
,,,-1.82240000e-007,1.79999694e-003
,,,-1.82220000e-007,3.59999686e-003
,,,-1.82200000e-007,4.03593435e-003
,,,-1.82180000e-007,3.59999686e-003
,,,-1.82160000e-007,3.38905937e-003
,,,-1.82140000e-007,3.59999686e-003
,,,-1.82120000e-007,3.62812186e-003
,,,-1.82100000e-007,3.59999686e-003
,,,-1.82080000e-007,3.55780937e-003
,,,-1.82060000e-007,3.59999686e-003
,,,-1.82040000e-007,3.47343437e-003
,,,-1.82020000e-007,3.59999686e-003
,,,-1.82000000e-007,3.82499686e-003
,,,-1.81980000e-007,3.59999686e-003
,,,-1.81960000e-007,2.29218442e-003
,,,-1.81940000e-007,-2.98023223e-009
,,,-1.81920000e-007,-2.23594038e-003
,,,-1.81900000e-007,-3.60000283e-003
,,,-1.81880000e-007,-3.67031532e-003
,,,-1.81860000e-007,-3.60000283e-003
,,,-1.81840000e-007,-3.67031532e-003
,,,-1.81820000e-007,-3.60000283e-003
,,,-1.81800000e-007,-2.29219038e-003
,,,-1.81780000e-007,-2.98023223e-009
,,,-1.81760000e-007,2.30624692e-003
,,,-1.81740000e-007,3.59999686e-003
,,,-1.81720000e-007,3.68437186e-003
,,,-1.81700000e-007,3.59999686e-003
,,,-1.81680000e-007,3.68437186e-003
,,,-1.81660000e-007,3.59999686e-003
,,,-1.81640000e-007,2.24999692e-003
,,,-1.81620000e-007,-2.98023223e-009
,,,-1.81600000e-007,-2.22187788e-003
,,,-1.81580000e-007,-3.60000283e-003
,,,-1.81560000e-007,-3.88125281e-003
,,,-1.81540000e-007,-3.60000283e-003
,,,-1.81520000e-007,-3.17812784e-003
,,,-1.81500000e-007,-3.60000283e-003
,,,-1.81480000e-007,-4.12031530e-003
,,,-1.81460000e-007,-3.60000283e-003
,,,-1.81440000e-007,-1.57500291e-003
,,,-1.81420000e-007,-2.98023223e-009
,,,-1.81400000e-007,8.43720161e-005
,,,-1.81380000e-007,-2.98023223e-009
,,,-1.81360000e-007,1.37812196e-003
,,,-1.81340000e-007,3.59999686e-003
,,,-1.81320000e-007,4.54218432e-003
,,,-1.81300000e-007,3.59999686e-003
,,,-1.81280000e-007,1.53280945e-003
,,,-1.81260000e-007,-2.98023223e-009
,,,-1.81240000e-007,-2.81252968e-004
,,,-1.81220000e-007,-2.98023223e-009
,,,-1.81200000e-007,8.43720161e-005
