plots/mediciones/2022_12_27_INTI/5V/csv/221227_115904.csv

"Record Length",1250,"Points",-1.20000000e-009,4.07812184e-003
"Sample Interval",2.00000000e-012,s,-1.19800000e-009,4.04999685e-003
"Trigger Point",600,"Samples",-1.19600000e-009,3.97968435e-003
"Trigger Time",2.20215247e-013,s,-1.19400000e-009,3.90937185e-003
"",,,-1.19200000e-009,3.82499686e-003
"Horizontal Offset",-1.20000000e-009,s,-1.19000000e-009,3.72655936e-003
,,,-1.18800000e-009,3.59999686e-003
,,,-1.18600000e-009,3.45937187e-003
,,,-1.18400000e-009,3.30468438e-003
,,,-1.18200000e-009,3.13593438e-003
,,,-1.18000000e-009,2.95312189e-003
,,,-1.17800000e-009,2.77030940e-003
,,,-1.17600000e-009,2.57343441e-003
,,,-1.17400000e-009,2.36249692e-003
,,,-1.17200000e-009,2.16562193e-003
,,,-1.17000000e-009,1.95468444e-003
,,,-1.16800000e-009,1.74374694e-003
,,,-1.16600000e-009,1.53280945e-003
,,,-1.16400000e-009,1.33593446e-003
,,,-1.16200000e-009,1.13905947e-003
,,,-1.16000000e-009,9.42184479e-004
,,,-1.15800000e-009,7.59371987e-004
,,,-1.15600000e-009,5.90621994e-004
,,,-1.15400000e-009,4.21872002e-004
,,,-1.15200000e-009,2.67184508e-004
,,,-1.15000000e-009,1.26559514e-004
,,,-1.14800000e-009,-2.98023223e-009
,,,-1.14600000e-009,-9.84404760e-005
,,,-1.14400000e-009,-1.96877972e-004
,,,-1.14200000e-009,-2.67190469e-004
,,,-1.14000000e-009,-3.37502966e-004
,,,-1.13800000e-009,-3.79690464e-004
,,,-1.13600000e-009,-4.21877962e-004
,,,-1.13400000e-009,-4.35940461e-004
,,,-1.13200000e-009,-4.35940461e-004
,,,-1.13000000e-009,-4.35940461e-004
,,,-1.12800000e-009,-4.21877962e-004
,,,-1.12600000e-009,-3.93752963e-004
,,,-1.12400000e-009,-3.65627964e-004
,,,-1.12200000e-009,-3.23440466e-004
,,,-1.12000000e-009,-2.81252968e-004
,,,-1.11800000e-009,-2.39065470e-004
,,,-1.11600000e-009,-1.82815472e-004
,,,-1.11400000e-009,-1.40627974e-004
,,,-1.11200000e-009,-8.43779766e-005
,,,-1.11000000e-009,-4.21904784e-005
,,,-1.10800000e-009,-2.98023223e-009
,,,-1.10600000e-009,5.62470173e-005
,,,-1.10400000e-009,9.84345155e-005
,,,-1.10200000e-009,1.40622014e-004
,,,-1.10000000e-009,1.68747013e-004
,,,-1.09800000e-009,1.96872011e-004
,,,-1.09600000e-009,2.10934511e-004
,,,-1.09400000e-009,2.24997010e-004
,,,-1.09200000e-009,2.24997010e-004
,,,-1.09000000e-009,2.24997010e-004
,,,-1.08800000e-009,2.24997010e-004
,,,-1.08600000e-009,2.10934511e-004
,,,-1.08400000e-009,1.96872011e-004
,,,-1.08200000e-009,1.82809512e-004
,,,-1.08000000e-009,1.54684513e-004
,,,-1.07800000e-009,1.40622014e-004
,,,-1.07600000e-009,1.12497015e-004
,,,-1.07400000e-009,8.43720161e-005
,,,-1.07200000e-009,5.62470173e-005
,,,-1.07000000e-009,2.81220186e-005
,,,-1.06800000e-009,-2.98023223e-009
,,,-1.06600000e-009,-1.40654796e-005
,,,-1.06400000e-009,-2.81279790e-005
,,,-1.06200000e-009,-4.21904784e-005
,,,-1.06000000e-009,-4.21904784e-005
,,,-1.05800000e-009,-5.62529778e-005
,,,-1.05600000e-009,-7.03154772e-005
,,,-1.05400000e-009,-7.03154772e-005
,,,-1.05200000e-009,-7.03154772e-005
,,,-1.05000000e-009,-7.03154772e-005
,,,-1.04800000e-009,-7.03154772e-005
,,,-1.04600000e-009,-7.03154772e-005
,,,-1.04400000e-009,-5.62529778e-005
,,,-1.04200000e-009,-5.62529778e-005
,,,-1.04000000e-009,-4.21904784e-005
,,,-1.03800000e-009,-4.21904784e-005
,,,-1.03600000e-009,-2.81279790e-005
,,,-1.03400000e-009,-1.40654796e-005
,,,-1.03200000e-009,-1.40654796e-005
,,,-1.03000000e-009,-2.98023223e-009
,,,-1.02800000e-009,-2.98023223e-009
,,,-1.02600000e-009,1.40595192e-005
,,,-1.02400000e-009,1.40595192e-005
,,,-1.02200000e-009,2.81220186e-005
,,,-1.02000000e-009,2.81220186e-005
,,,-1.01800000e-009,2.81220186e-005
,,,-1.01600000e-009,2.81220186e-005
,,,-1.01400000e-009,1.40595192e-005
,,,-1.01200000e-009,1.40595192e-005
,,,-1.01000000e-009,1.40595192e-005
,,,-1.00800000e-009,1.40595192e-005
,,,-1.00600000e-009,-2.98023223e-009
,,,-1.00400000e-009,-2.98023223e-009
,,,-1.00200000e-009,-2.98023223e-009
,,,-1.00000000e-009,-1.40654796e-005
,,,-9.98000000e-010,-1.40654796e-005
,,,-9.96000000e-010,-1.40654796e-005
,,,-9.94000000e-010,-1.40654796e-005
,,,-9.92000000e-010,-2.98023223e-009
,,,-9.90000000e-010,-2.98023223e-009
,,,-9.88000000e-010,-2.98023223e-009
,,,-9.86000000e-010,1.40595192e-005
,,,-9.84000000e-010,2.81220186e-005
,,,-9.82000000e-010,2.81220186e-005
,,,-9.80000000e-010,4.21845180e-005
,,,-9.78000000e-010,5.62470173e-005
,,,-9.76000000e-010,5.62470173e-005
,,,-9.74000000e-010,7.03095167e-005
,,,-9.72000000e-010,7.03095167e-005
,,,-9.70000000e-010,8.43720161e-005
,,,-9.68000000e-010,8.43720161e-005
,,,-9.66000000e-010,8.43720161e-005
,,,-9.64000000e-010,8.43720161e-005
,,,-9.62000000e-010,8.43720161e-005
,,,-9.60000000e-010,8.43720161e-005
,,,-9.58000000e-010,7.03095167e-005
,,,-9.56000000e-010,5.62470173e-005
,,,-9.54000000e-010,5.62470173e-005
,,,-9.52000000e-010,4.21845180e-005
,,,-9.50000000e-010,2.81220186e-005
,,,-9.48000000e-010,-2.98023223e-009
,,,-9.46000000e-010,-1.40654796e-005
,,,-9.44000000e-010,-2.81279790e-005
,,,-9.42000000e-010,-4.21904784e-005
,,,-9.40000000e-010,-7.03154772e-005
,,,-9.38000000e-010,-8.43779766e-005
,,,-9.36000000e-010,-9.84404760e-005
,,,-9.34000000e-010,-1.12502975e-004
,,,-9.32000000e-010,-1.26565475e-004
,,,-9.30000000e-010,-1.40627974e-004
,,,-9.28000000e-010,-1.54690474e-004
,,,-9.26000000e-010,-1.54690474e-004
,,,-9.24000000e-010,-1.54690474e-004
,,,-9.22000000e-010,-1.54690474e-004
,,,-9.20000000e-010,-1.40627974e-004
,,,-9.18000000e-010,-1.26565475e-004
,,,-9.16000000e-010,-1.12502975e-004
,,,-9.14000000e-010,-8.43779766e-005
,,,-9.12000000e-010,-5.62529778e-005
,,,-9.10000000e-010,-2.81279790e-005
,,,-9.08000000e-010,-2.98023223e-009
,,,-9.06000000e-010,5.62470173e-005
,,,-9.04000000e-010,9.84345155e-005
,,,-9.02000000e-010,1.40622014e-004
,,,-9.00000000e-010,1.96872011e-004
,,,-8.98000000e-010,2.39059509e-004
,,,-8.96000000e-010,2.81247008e-004
,,,-8.94000000e-010,3.23434506e-004
,,,-8.92000000e-010,3.65622004e-004
,,,-8.90000000e-010,3.93747003e-004
,,,-8.88000000e-010,4.21872002e-004
,,,-8.86000000e-010,4.35934501e-004
,,,-8.84000000e-010,4.35934501e-004
,,,-8.82000000e-010,4.35934501e-004
,,,-8.80000000e-010,4.21872002e-004
,,,-8.78000000e-010,3.79684503e-004
,,,-8.76000000e-010,3.37497005e-004
,,,-8.74000000e-010,2.81247008e-004
,,,-8.72000000e-010,2.10934511e-004
,,,-8.70000000e-010,1.12497015e-004
,,,-8.68000000e-010,-2.98023223e-009
,,,-8.66000000e-010,-9.84404760e-005
,,,-8.64000000e-010,-2.25002971e-004
,,,-8.62000000e-010,-3.51565465e-004
,,,-8.60000000e-010,-5.06252958e-004
,,,-8.58000000e-010,-6.60940452e-004
,,,-8.56000000e-010,-8.29690445e-004
,,,-8.54000000e-010,-1.01250294e-003
,,,-8.52000000e-010,-1.19531543e-003
,,,-8.50000000e-010,-1.39219042e-003
,,,-8.48000000e-010,-1.58906541e-003
,,,-8.46000000e-010,-1.80000290e-003
,,,-8.44000000e-010,-2.01094039e-003
,,,-8.42000000e-010,-2.20781539e-003
,,,-8.40000000e-010,-2.41875288e-003
,,,-8.38000000e-010,-2.62969037e-003
,,,-8.36000000e-010,-2.84062786e-003
,,,-8.34000000e-010,-3.03750285e-003
,,,-8.32000000e-010,-3.23437784e-003
,,,-8.30000000e-010,-3.41719033e-003
,,,-8.28000000e-010,-3.60000283e-003
,,,-8.26000000e-010,-3.74062782e-003
,,,-8.24000000e-010,-3.86719031e-003
,,,-8.22000000e-010,-3.99375281e-003
,,,-8.20000000e-010,-4.09219030e-003
,,,-8.18000000e-010,-4.17656530e-003
,,,-8.16000000e-010,-4.24687780e-003
,,,-8.14000000e-010,-4.30312779e-003
,,,-8.12000000e-010,-4.34531529e-003
,,,-8.10000000e-010,-4.37344029e-003
,,,-8.08000000e-010,-4.37344029e-003
,,,-8.06000000e-010,-4.35937779e-003
,,,-8.04000000e-010,-4.33125279e-003
,,,-8.02000000e-010,-4.28906530e-003
,,,-8.00000000e-010,-4.23281530e-003
,,,-7.98000000e-010,-4.16250280e-003
,,,-7.96000000e-010,-4.07812780e-003
,,,-7.94000000e-010,-3.96562781e-003
,,,-7.92000000e-010,-3.85312781e-003
,,,-7.90000000e-010,-3.72656532e-003
,,,-7.88000000e-010,-3.60000283e-003
,,,-7.86000000e-010,-3.44531533e-003
,,,-7.84000000e-010,-3.27656534e-003
,,,-7.82000000e-010,-3.10781535e-003
,,,-7.80000000e-010,-2.93906535e-003
,,,-7.78000000e-010,-2.75625286e-003
,,,-7.76000000e-010,-2.57344037e-003
,,,-7.74000000e-010,-2.39062788e-003
,,,-7.72000000e-010,-2.20781539e-003
,,,-7.70000000e-010,-2.02500289e-003
,,,-7.68000000e-010,-1.82812790e-003
,,,-7.66000000e-010,-1.64531541e-003
,,,-7.64000000e-010,-1.46250292e-003
,,,-7.62000000e-010,-1.26562793e-003
,,,-7.60000000e-010,-1.08281543e-003
,,,-7.58000000e-010,-9.00002941e-004
,,,-7.56000000e-010,-7.17190449e-004
,,,-7.54000000e-010,-5.34377957e-004
,,,-7.52000000e-010,-3.51565465e-004
,,,-7.50000000e-010,-1.68752973e-004
,,,-7.48000000e-010,-2.98023223e-009
,,,-7.46000000e-010,1.82809512e-004
,,,-7.44000000e-010,3.51559505e-004
,,,-7.42000000e-010,5.06246998e-004
,,,-7.40000000e-010,6.74996991e-004
,,,-7.38000000e-010,8.43746983e-004
,,,-7.36000000e-010,9.98434477e-004
,,,-7.34000000e-010,1.16718447e-003
,,,-7.32000000e-010,1.33593446e-003
,,,-7.30000000e-010,1.50468445e-003
,,,-7.28000000e-010,1.67343445e-003
,,,-7.26000000e-010,1.84218444e-003
,,,-7.24000000e-010,2.01093443e-003
,,,-7.22000000e-010,2.19374693e-003
,,,-7.20000000e-010,2.37655942e-003
,,,-7.18000000e-010,2.57343441e-003
,,,-7.16000000e-010,2.77030940e-003
,,,-7.14000000e-010,2.96718439e-003
,,,-7.12000000e-010,3.17812188e-003
,,,-7.10000000e-010,3.38905937e-003
,,,-7.08000000e-010,3.59999686e-003
,,,-7.06000000e-010,3.82499686e-003
,,,-7.04000000e-010,4.04999685e-003
,,,-7.02000000e-010,4.28905934e-003
,,,-7.00000000e-010,4.51405933e-003
,,,-6.98000000e-010,4.75312182e-003
,,,-6.96000000e-010,4.97812181e-003
,,,-6.94000000e-010,5.20312180e-003
,,,-6.92000000e-010,5.42812179e-003
,,,-6.90000000e-010,5.65312178e-003
,,,-6.88000000e-010,5.86405927e-003
,,,-6.86000000e-010,6.06093426e-003
,,,-6.84000000e-010,6.25780925e-003
,,,-6.82000000e-010,6.44062174e-003
,,,-6.80000000e-010,6.59530924e-003
,,,-6.78000000e-010,6.74999673e-003
,,,-6.76000000e-010,6.87655922e-003
,,,-6.74000000e-010,6.98905922e-003
,,,-6.72000000e-010,7.08749671e-003
,,,-6.70000000e-010,7.15780921e-003
,,,-6.68000000e-010,7.19999671e-003
,,,-6.66000000e-010,7.24218421e-003
,,,-6.64000000e-010,7.25624671e-003
,,,-6.62000000e-010,7.24218421e-003
,,,-6.60000000e-010,7.19999671e-003
,,,-6.58000000e-010,7.14374671e-003
,,,-6.56000000e-010,7.05937172e-003
,,,-6.54000000e-010,6.96093422e-003
,,,-6.52000000e-010,6.83437173e-003
,,,-6.50000000e-010,6.67968423e-003
,,,-6.48000000e-010,6.51093424e-003
,,,-6.46000000e-010,6.31405925e-003
,,,-6.44000000e-010,6.08905926e-003
,,,-6.42000000e-010,5.84999677e-003
,,,-6.40000000e-010,5.58280928e-003
,,,-6.38000000e-010,5.30155929e-003
,,,-6.36000000e-010,5.00624680e-003
,,,-6.34000000e-010,4.68280932e-003
,,,-6.32000000e-010,4.33124683e-003
,,,-6.30000000e-010,3.97968435e-003
,,,-6.28000000e-010,3.59999686e-003
,,,-6.26000000e-010,3.23437188e-003
,,,-6.24000000e-010,2.85468440e-003
,,,-6.22000000e-010,2.46093441e-003
,,,-6.20000000e-010,2.06718443e-003
,,,-6.18000000e-010,1.67343445e-003
,,,-6.16000000e-010,1.27968446e-003
,,,-6.14000000e-010,8.99996981e-004
,,,-6.12000000e-010,5.06246998e-004
,,,-6.10000000e-010,1.12497015e-004
,,,-6.08000000e-010,-2.67190469e-004
,,,-6.06000000e-010,-6.46877952e-004
,,,-6.04000000e-010,-1.01250294e-003
,,,-6.02000000e-010,-1.37812792e-003
,,,-6.00000000e-010,-1.72969041e-003
,,,-5.98000000e-010,-2.06719039e-003
,,,-5.96000000e-010,-2.40469038e-003
,,,-5.94000000e-010,-2.71406536e-003
,,,-5.92000000e-010,-3.02344035e-003
,,,-5.90000000e-010,-3.31875284e-003
,,,-5.88000000e-010,-3.60000283e-003
,,,-5.86000000e-010,-3.85312781e-003
,,,-5.84000000e-010,-4.09219030e-003
,,,-5.82000000e-010,-4.30312779e-003
,,,-5.80000000e-010,-4.48594029e-003
,,,-5.78000000e-010,-4.65469028e-003
,,,-5.76000000e-010,-4.79531527e-003
,,,-5.74000000e-010,-4.90781527e-003
,,,-5.72000000e-010,-5.00625276e-003
,,,-5.70000000e-010,-5.06250276e-003
,,,-5.68000000e-010,-5.09062776e-003
,,,-5.66000000e-010,-5.09062776e-003
,,,-5.64000000e-010,-5.04844026e-003
,,,-5.62000000e-010,-4.99219027e-003
,,,-5.60000000e-010,-4.89375277e-003
,,,-5.58000000e-010,-4.75312778e-003
,,,-5.56000000e-010,-4.59844028e-003
,,,-5.54000000e-010,-4.40156529e-003
,,,-5.52000000e-010,-4.16250280e-003
,,,-5.50000000e-010,-3.89531531e-003
,,,-5.48000000e-010,-3.60000283e-003
,,,-5.46000000e-010,-3.27656534e-003
,,,-5.44000000e-010,-2.93906535e-003
,,,-5.42000000e-010,-2.57344037e-003
,,,-5.40000000e-010,-2.16562789e-003
,,,-5.38000000e-010,-1.74375291e-003
,,,-5.36000000e-010,-1.30781542e-003
,,,-5.34000000e-010,-8.29690445e-004
,,,-5.32000000e-010,-3.37502966e-004
,,,-5.30000000e-010,1.96872011e-004
,,,-5.28000000e-010,7.31246988e-004
,,,-5.26000000e-010,1.30780946e-003
,,,-5.24000000e-010,1.88437194e-003
,,,-5.22000000e-010,2.50312191e-003
,,,-5.20000000e-010,3.12187189e-003
,,,-5.18000000e-010,3.76874686e-003
,,,-5.16000000e-010,4.42968433e-003
,,,-5.14000000e-010,5.10468430e-003
,,,-5.12000000e-010,5.79374677e-003
,,,-5.10000000e-010,6.49687174e-003
,,,-5.08000000e-010,7.19999671e-003
,,,-5.06000000e-010,7.86093418e-003
,,,-5.04000000e-010,8.52187165e-003
,,,-5.02000000e-010,9.16874663e-003
,,,-5.00000000e-010,9.81562160e-003
,,,-4.98000000e-010,1.04484341e-002
,,,-4.96000000e-010,1.10812465e-002
,,,-4.94000000e-010,1.16999965e-002
,,,-4.92000000e-010,1.22906215e-002
,,,-4.90000000e-010,1.28812465e-002
,,,-4.88000000e-010,1.34578089e-002
,,,-4.86000000e-010,1.40062464e-002
,,,-4.84000000e-010,1.45546839e-002
,,,-4.82000000e-010,1.50749964e-002
,,,-4.80000000e-010,1.55671838e-002
,,,-4.78000000e-010,1.60453088e-002
,,,-4.76000000e-010,1.64953088e-002
,,,-4.74000000e-010,1.69171838e-002
,,,-4.72000000e-010,1.73109338e-002
,,,-4.70000000e-010,1.76765588e-002
,,,-4.68000000e-010,1.79999962e-002
,,,-4.66000000e-010,1.82671837e-002
,,,-4.64000000e-010,1.84921837e-002
,,,-4.62000000e-010,1.86890587e-002
,,,-4.60000000e-010,1.88296837e-002
,,,-4.58000000e-010,1.89281212e-002
,,,-4.56000000e-010,1.89843712e-002
,,,-4.54000000e-010,1.89984337e-002
,,,-4.52000000e-010,1.89562462e-002
,,,-4.50000000e-010,1.88718712e-002
,,,-4.48000000e-010,1.87312462e-002
,,,-4.46000000e-010,1.85484337e-002
,,,-4.44000000e-010,1.83093712e-002
,,,-4.42000000e-010,1.80140587e-002
,,,-4.40000000e-010,1.76624963e-002
,,,-4.38000000e-010,1.72546838e-002
,,,-4.36000000e-010,1.67906213e-002
,,,-4.34000000e-010,1.62703088e-002
,,,-4.32000000e-010,1.57078088e-002
,,,-4.30000000e-010,1.50749964e-002
,,,-4.28000000e-010,1.43999964e-002
,,,-4.26000000e-010,1.37109339e-002
,,,-4.24000000e-010,1.29796840e-002
,,,-4.22000000e-010,1.22062465e-002
,,,-4.20000000e-010,1.14046840e-002
,,,-4.18000000e-010,1.05749966e-002
,,,-4.16000000e-010,9.71718410e-003
,,,-4.14000000e-010,8.84530914e-003
,,,-4.12000000e-010,7.94530918e-003
,,,-4.10000000e-010,7.03124672e-003
,,,-4.08000000e-010,6.08905926e-003
,,,-4.06000000e-010,5.14687180e-003
,,,-4.04000000e-010,4.19062184e-003
,,,-4.02000000e-010,3.22030938e-003
,,,-4.00000000e-010,2.24999692e-003
,,,-3.98000000e-010,1.27968446e-003
,,,-3.96000000e-010,2.95309507e-004
,,,-3.94000000e-010,-6.89065451e-004
,,,-3.92000000e-010,-1.65937791e-003
,,,-3.90000000e-010,-2.62969037e-003
,,,-3.88000000e-010,-3.60000283e-003
,,,-3.86000000e-010,-4.48594029e-003
,,,-3.84000000e-010,-5.35781525e-003
,,,-3.82000000e-010,-6.20156521e-003
,,,-3.80000000e-010,-7.03125268e-003
,,,-3.78000000e-010,-7.84687764e-003
,,,-3.76000000e-010,-8.63437761e-003
,,,-3.74000000e-010,-9.40781508e-003
,,,-3.72000000e-010,-1.01531275e-002
,,,-3.70000000e-010,-1.08843775e-002
,,,-3.68000000e-010,-1.16015650e-002
,,,-3.66000000e-010,-1.23046900e-002
,,,-3.64000000e-010,-1.29937524e-002
,,,-3.62000000e-010,-1.36687524e-002
,,,-3.60000000e-010,-1.43296899e-002
,,,-3.58000000e-010,-1.49765648e-002
,,,-3.56000000e-010,-1.56093773e-002
,,,-3.54000000e-010,-1.62281273e-002
,,,-3.52000000e-010,-1.68328148e-002
,,,-3.50000000e-010,-1.74234397e-002
,,,-3.48000000e-010,-1.80000022e-002
,,,-3.46000000e-010,-1.85203147e-002
,,,-3.44000000e-010,-1.90125022e-002
,,,-3.42000000e-010,-1.94906271e-002
,,,-3.40000000e-010,-1.99125021e-002
,,,-3.38000000e-010,-2.03062521e-002
,,,-3.36000000e-010,-2.06578146e-002
,,,-3.34000000e-010,-2.09671896e-002
,,,-3.32000000e-010,-2.12062521e-002
,,,-3.30000000e-010,-2.13890646e-002
,,,-3.28000000e-010,-2.15156271e-002
,,,-3.26000000e-010,-2.15578146e-002
,,,-3.24000000e-010,-2.15296896e-002
,,,-3.22000000e-010,-2.14171896e-002
,,,-3.20000000e-010,-2.12203146e-002
,,,-3.18000000e-010,-2.09250021e-002
,,,-3.16000000e-010,-2.05453146e-002
,,,-3.14000000e-010,-2.00531271e-002
,,,-3.12000000e-010,-1.94625021e-002
,,,-3.10000000e-010,-1.87875022e-002
,,,-3.08000000e-010,-1.80000022e-002
,,,-3.06000000e-010,-1.71421897e-002
,,,-3.04000000e-010,-1.62281273e-002
,,,-3.02000000e-010,-1.52156273e-002
,,,-3.00000000e-010,-1.41328149e-002
,,,-2.98000000e-010,-1.29656274e-002
,,,-2.96000000e-010,-1.17281275e-002
,,,-2.94000000e-010,-1.04343775e-002
,,,-2.92000000e-010,-9.07031509e-003
,,,-2.90000000e-010,-7.63594015e-003
,,,-2.88000000e-010,-6.14531522e-003
,,,-2.86000000e-010,-4.61250278e-003
,,,-2.84000000e-010,-3.02344035e-003
,,,-2.82000000e-010,-1.39219042e-003
,,,-2.80000000e-010,2.81247008e-004
,,,-2.78000000e-010,1.98280943e-003
,,,-2.76000000e-010,3.71249686e-003
,,,-2.74000000e-010,5.47030928e-003
,,,-2.72000000e-010,7.24218421e-003
,,,-2.70000000e-010,9.02812163e-003
,,,-2.68000000e-010,1.07999966e-002
,,,-2.66000000e-010,1.25156215e-002
,,,-2.64000000e-010,1.42031214e-002
,,,-2.62000000e-010,1.58624963e-002
,,,-2.60000000e-010,1.74796838e-002
,,,-2.58000000e-010,1.90546837e-002
,,,-2.56000000e-010,2.05874961e-002
,,,-2.54000000e-010,2.20640586e-002
,,,-2.52000000e-010,2.34984335e-002
,,,-2.50000000e-010,2.48765584e-002
,,,-2.48000000e-010,2.61984334e-002
,,,-2.46000000e-010,2.74640583e-002
,,,-2.44000000e-010,2.86734333e-002
,,,-2.42000000e-010,2.98265582e-002
,,,-2.40000000e-010,3.09093707e-002
,,,-2.38000000e-010,3.19218706e-002
,,,-2.36000000e-010,3.28781206e-002
,,,-2.34000000e-010,3.37781206e-002
,,,-2.32000000e-010,3.45937455e-002
,,,-2.30000000e-010,3.53390580e-002
,,,-2.28000000e-010,3.59999955e-002
,,,-2.26000000e-010,3.67312454e-002
,,,-2.24000000e-010,3.73921829e-002
,,,-2.22000000e-010,3.79687454e-002
,,,-2.20000000e-010,3.84609329e-002
,,,-2.18000000e-010,3.88687453e-002
,,,-2.16000000e-010,3.91781203e-002
,,,-2.14000000e-010,3.93749953e-002
,,,-2.12000000e-010,3.94734328e-002
,,,-2.10000000e-010,3.94312453e-002
,,,-2.08000000e-010,3.92624953e-002
,,,-2.06000000e-010,3.89531203e-002
,,,-2.04000000e-010,3.84890579e-002
,,,-2.02000000e-010,3.78843704e-002
,,,-2.00000000e-010,3.70968704e-002
,,,-1.98000000e-010,3.61546830e-002
,,,-1.96000000e-010,3.50296830e-002
,,,-1.94000000e-010,3.37359331e-002
,,,-1.92000000e-010,3.22734331e-002
,,,-1.90000000e-010,3.06281207e-002
,,,-1.88000000e-010,2.87999958e-002
,,,-1.86000000e-010,2.73937458e-002
,,,-1.84000000e-010,2.58890584e-002
,,,-1.82000000e-010,2.42859335e-002
,,,-1.80000000e-010,2.25843710e-002
,,,-1.78000000e-010,2.07703086e-002
,,,-1.76000000e-010,1.88296837e-002
,,,-1.74000000e-010,1.67906213e-002
,,,-1.72000000e-010,1.46249964e-002
,,,-1.70000000e-010,1.23187465e-002
,,,-1.68000000e-010,9.89999659e-003
,,,-1.66000000e-010,7.32655920e-003
,,,-1.64000000e-010,4.62655932e-003
,,,-1.62000000e-010,1.78593444e-003
,,,-1.60000000e-010,-1.19531543e-003
,,,-1.58000000e-010,-4.30312779e-003
,,,-1.56000000e-010,-7.55156516e-003
,,,-1.54000000e-010,-1.09125025e-002
,,,-1.52000000e-010,-1.43859399e-002
,,,-1.50000000e-010,-1.79437522e-002
,,,-1.48000000e-010,-2.16000021e-002
,,,-1.46000000e-010,-2.42015644e-002
,,,-1.44000000e-010,-2.67468768e-002
,,,-1.42000000e-010,-2.92359392e-002
,,,-1.40000000e-010,-3.16687516e-002
,,,-1.38000000e-010,-3.40453140e-002
,,,-1.36000000e-010,-3.63515639e-002
,,,-1.34000000e-010,-3.86296888e-002
,,,-1.32000000e-010,-4.08515637e-002
,,,-1.30000000e-010,-4.30453136e-002
,,,-1.28000000e-010,-4.51968760e-002
,,,-1.26000000e-010,-4.73203134e-002
,,,-1.24000000e-010,-4.94156259e-002
,,,-1.22000000e-010,-5.14828133e-002
,,,-1.20000000e-010,-5.35218757e-002
,,,-1.18000000e-010,-5.55328131e-002
,,,-1.16000000e-010,-5.75015630e-002
,,,-1.14000000e-010,-5.94281254e-002
